{
    "image-list": {
        "image": [
            {
                "easting": 833514,
                "latitude": 22.2485255,
                "description": "Aberdeen Praya Road near Fish Market",
                "region": "Hong Kong Island",
                "northing": 812196,
                "key": "H429F",
                "url": "http://tdcctv.data.one.gov.hk/H429F.JPG",
                "longitude": 114.1501576
            },
            {
                "easting": 836504,
                "latitude": 22.27490622,
                "description": "Aberdeen Tunnel - Wan Chai Side",
                "region": "Hong Kong Island",
                "northing": 815117,
                "key": "H210F",
                "url": "http://tdcctv.data.one.gov.hk/H210F.JPG",
                "longitude": 114.1791642
            },
            {
                "easting": 836245,
                "latitude": 22.25024351,
                "description": "Aberdeen Tunnel - Aberdeen Side",
                "region": "Hong Kong Island",
                "northing": 812386,
                "key": "H421F",
                "url": "http://tdcctv.data.one.gov.hk/H421F.JPG",
                "longitude": 114.1766512
            },
            {
                "easting": 834632,
                "latitude": 22.24792186,
                "description": "Ap Lei Chau Bridge Road near Aberdeen Police Station",
                "region": "Hong Kong Island",
                "northing": 812129,
                "key": "H422F2",
                "url": "http://tdcctv.data.one.gov.hk/H422F2.JPG",
                "longitude": 114.1610034
            },
            {
                "easting": 836731,
                "latitude": 22.2793944,
                "description": "Canal Road Flyover near Gloucester Road",
                "region": "Hong Kong Island",
                "northing": 815614,
                "key": "H904F",
                "url": "http://tdcctv.data.one.gov.hk/H904F.JPG",
                "longitude": 114.1813669
            },
            {
                "easting": 836735,
                "latitude": 22.27930409,
                "description": "Canal Road Flyover near Time Square",
                "region": "Hong Kong Island",
                "northing": 815604,
                "key": "H216F",
                "url": "http://tdcctv.data.one.gov.hk/H216F.JPG",
                "longitude": 114.1814057
            },
            {
                "easting": 837747,
                "latitude": 22.28175082,
                "description": "Causeway Road near Hing Fat Street",
                "region": "Hong Kong Island",
                "northing": 815875,
                "key": "H305F",
                "url": "http://tdcctv.data.one.gov.hk/H305F.JPG",
                "longitude": 114.1912256
            },
            {
                "easting": 834091,
                "latitude": 22.2859674,
                "description": "Connaught Road Central near Exchange Square",
                "region": "Hong Kong Island",
                "northing": 816342,
                "key": "H106F",
                "url": "http://tdcctv.data.one.gov.hk/H106F.JPG",
                "longitude": 114.1557495
            },
            {
                "easting": 833910,
                "latitude": 22.28688829,
                "description": "Connaught Road Central near Shun Tak Centre",
                "region": "Hong Kong Island",
                "northing": 816444,
                "key": "H110F",
                "url": "http://tdcctv.data.one.gov.hk/H110F.JPG",
                "longitude": 114.153993
            },
            {
                "easting": 834492,
                "latitude": 22.27768676,
                "description": "Cotton Tree Drive near Hong Kong Park Sports Centre",
                "region": "Hong Kong Island",
                "northing": 815425,
                "key": "H138F",
                "url": "http://tdcctv.data.one.gov.hk/H138F.JPG",
                "longitude": 114.1596417
            },
            {
                "easting": 836788,
                "latitude": 22.28128179,
                "description": "Cross Harbour Tunnel Hong Kong Side",
                "region": "Hong Kong Island",
                "northing": 815823,
                "key": "H207F",
                "url": "http://tdcctv.data.one.gov.hk/H207F.JPG",
                "longitude": 114.1819201
            },
            {
                "easting": 836018,
                "latitude": 22.28054134,
                "description": "Fleming Road near Harbour Road",
                "region": "Hong Kong Island",
                "northing": 815741,
                "key": "H204F",
                "url": "http://tdcctv.data.one.gov.hk/H204F.JPG",
                "longitude": 114.1744485
            },
            {
                "easting": 836234,
                "latitude": 22.27971054,
                "description": "Gloucester Road near Sun Hung Kai Center",
                "region": "Hong Kong Island",
                "northing": 815649,
                "key": "H222F",
                "url": "http://tdcctv.data.one.gov.hk/H222F.JPG",
                "longitude": 114.1765444
            },
            {
                "easting": 836496,
                "latitude": 22.28160696,
                "description": "Gloucester Road near Wan Chai Interchange",
                "region": "Hong Kong Island",
                "northing": 815859,
                "key": "H215F",
                "url": "http://tdcctv.data.one.gov.hk/H215F.JPG",
                "longitude": 114.1790867
            },
            {
                "easting": 835411,
                "latitude": 22.27981869,
                "description": "Harcourt Road near Red Cross Headquarter",
                "region": "Hong Kong Island",
                "northing": 815661,
                "key": "H214F",
                "url": "http://tdcctv.data.one.gov.hk/H214F.JPG",
                "longitude": 114.1685587
            },
            {
                "easting": 835405,
                "latitude": 22.27783195,
                "description": "Hennessy Road near Arsenal Street",
                "region": "Hong Kong Island",
                "northing": 815441,
                "key": "H201F",
                "url": "http://tdcctv.data.one.gov.hk/H201F.JPG",
                "longitude": 114.1685006
            },
            {
                "easting": 839884,
                "latitude": 22.29106727,
                "description": "Island Eastern Corridor near Hoi Yu Street",
                "region": "Hong Kong Island",
                "northing": 816907,
                "key": "H802F",
                "url": "http://tdcctv.data.one.gov.hk/H802F.JPG",
                "longitude": 114.2119641
            },
            {
                "easting": 839208,
                "latitude": 22.29401254,
                "description": "Island Eastern Corridor near Ka Wah Centre",
                "region": "Hong Kong Island",
                "northing": 817233,
                "key": "H801F",
                "url": "http://tdcctv.data.one.gov.hk/H801F.JPG",
                "longitude": 114.2054047
            },
            {
                "easting": 840830,
                "latitude": 22.28826553,
                "description": "Island Eastern Corridor near Quarry Bay Park",
                "region": "Hong Kong Island",
                "northing": 816597,
                "key": "H803F",
                "url": "http://tdcctv.data.one.gov.hk/H803F.JPG",
                "longitude": 114.2211432
            },
            {
                "easting": 838164,
                "latitude": 22.29022115,
                "description": "King's Road near Tin Chong Street",
                "region": "Hong Kong Island",
                "northing": 816813,
                "key": "H307F",
                "url": "http://tdcctv.data.one.gov.hk/H307F.JPG",
                "longitude": 114.195273
            },
            {
                "easting": 836678,
                "latitude": 22.27573701,
                "description": "Morrison Hill Road near Sports Road",
                "region": "Hong Kong Island",
                "northing": 815209,
                "key": "H903F",
                "url": "http://tdcctv.data.one.gov.hk/H903F.JPG",
                "longitude": 114.1808526
            },
            {
                "easting": 834227,
                "latitude": 22.28142516,
                "description": "Pedder Street",
                "region": "Hong Kong Island",
                "northing": 815839,
                "key": "H107F",
                "url": "http://tdcctv.data.one.gov.hk/H107F.JPG",
                "longitude": 114.1570698
            },
            {
                "easting": 831675,
                "latitude": 22.28179051,
                "description": "Pok Fu Lam Road near Pokfield Road",
                "region": "Hong Kong Island",
                "northing": 815880,
                "key": "H130F",
                "url": "http://tdcctv.data.one.gov.hk/H130F.JPG",
                "longitude": 114.1323068
            },
            {
                "easting": 831527,
                "latitude": 22.27758183,
                "description": "Pok Fu Lam Road near Smithfield Road",
                "region": "Hong Kong Island",
                "northing": 815414,
                "key": "H132F2",
                "url": "http://tdcctv.data.one.gov.hk/H132F2.JPG",
                "longitude": 114.130872
            },
            {
                "easting": 834701,
                "latitude": 22.27982723,
                "description": "Queen's Road Central near Garden Road",
                "region": "Hong Kong Island",
                "northing": 815662,
                "key": "H109F",
                "url": "http://tdcctv.data.one.gov.hk/H109F.JPG",
                "longitude": 114.1616694
            },
            {
                "easting": 834287,
                "latitude": 22.28036864,
                "description": "Queen's Road Central near Ice House Street",
                "region": "Hong Kong Island",
                "northing": 815722,
                "key": "H108F",
                "url": "http://tdcctv.data.one.gov.hk/H108F.JPG",
                "longitude": 114.1576522
            },
            {
                "easting": 836422,
                "latitude": 22.27504169,
                "description": "Queen's Road East near Stubbs Road",
                "region": "Hong Kong Island",
                "northing": 815132,
                "key": "H209F",
                "url": "http://tdcctv.data.one.gov.hk/H209F.JPG",
                "longitude": 114.1783686
            },
            {
                "easting": 834642,
                "latitude": 22.24828309,
                "description": "Wong Chuk Hang Road near Aberdeen Technical School",
                "region": "Hong Kong Island",
                "northing": 812169,
                "key": "H422F1",
                "url": "http://tdcctv.data.one.gov.hk/H422F1.JPG",
                "longitude": 114.1611004
            },
            {
                "easting": 835631,
                "latitude": 22.25055947,
                "description": "Wong Chuk Hang Road near Aberdeen Tunnel",
                "region": "Hong Kong Island",
                "northing": 812421,
                "key": "H401F",
                "url": "http://tdcctv.data.one.gov.hk/H401F.JPG",
                "longitude": 114.1706947
            },
            {
                "easting": 837066,
                "latitude": 22.28011673,
                "description": "Yee Wo Street near Hennessy Road",
                "region": "Hong Kong Island",
                "northing": 815694,
                "key": "H203F",
                "url": "http://tdcctv.data.one.gov.hk/H203F.JPG",
                "longitude": 114.1846175
            },
            {
                "easting": 835849,
                "latitude": 22.31981545,
                "description": "Argyle Street near Yim Po Fong Street",
                "region": "Kowloon",
                "northing": 820090,
                "key": "K202F",
                "url": "http://tdcctv.data.one.gov.hk/K202F.JPG",
                "longitude": 114.1728075
            },
            {
                "easting": 835772,
                "latitude": 22.32660644,
                "description": "Boundary Street near Tai Hang Tung Road",
                "region": "Kowloon",
                "northing": 820842,
                "key": "K209F",
                "url": "http://tdcctv.data.one.gov.hk/K209F.JPG",
                "longitude": 114.17206
            },
            {
                "easting": 835363,
                "latitude": 22.30127544,
                "description": "Canton Road near China HK City",
                "region": "Kowloon",
                "northing": 818037,
                "key": "K104F",
                "url": "http://tdcctv.data.one.gov.hk/K104F.JPG",
                "longitude": 114.1680916
            },
            {
                "easting": 836309,
                "latitude": 22.30270251,
                "description": "Chatham Road near Austin Road",
                "region": "Kowloon",
                "northing": 818195,
                "key": "K106F",
                "url": "http://tdcctv.data.one.gov.hk/K106F.JPG",
                "longitude": 114.1772723
            },
            {
                "easting": 836469,
                "latitude": 22.30557423,
                "description": "Chatham Road near Princess Margaret Road",
                "region": "Kowloon",
                "northing": 818513,
                "key": "K109F",
                "url": "http://tdcctv.data.one.gov.hk/K109F.JPG",
                "longitude": 114.1788251
            },
            {
                "easting": 834894,
                "latitude": 22.31830685,
                "description": "Cherry Street near Hoi Wang Road",
                "region": "Kowloon",
                "northing": 819923,
                "key": "K221F",
                "url": "http://tdcctv.data.one.gov.hk/K221F.JPG",
                "longitude": 114.1635385
            },
            {
                "easting": 833695,
                "latitude": 22.33866944,
                "description": "Cheung Sha Wan Road near Kwong Cheung Street",
                "region": "Kowloon",
                "northing": 822178,
                "key": "K305F",
                "url": "http://tdcctv.data.one.gov.hk/K305F.JPG",
                "longitude": 114.1518975
            },
            {
                "easting": 834032,
                "latitude": 22.34304974,
                "description": "Ching Cheung Road near Caritas Medical Center",
                "region": "Kowloon",
                "northing": 822663,
                "key": "K802F",
                "url": "http://tdcctv.data.one.gov.hk/K802F.JPG",
                "longitude": 114.1551682
            },
            {
                "easting": 844258,
                "latitude": 22.30500482,
                "description": "Chui Ling Road near Po Shun Road",
                "region": "Kowloon",
                "northing": 818452,
                "key": "TK110F",
                "url": "http://tdcctv.data.one.gov.hk/TK110F.JPG",
                "longitude": 114.2544171
            },
            {
                "easting": 840913,
                "latitude": 22.3334725,
                "description": "Clear Water Bay Road near Fei Ngo Shan Road",
                "region": "Kowloon",
                "northing": 821603,
                "key": "K627F",
                "url": "http://tdcctv.data.one.gov.hk/K627F.JPG",
                "longitude": 114.2219631
            },
            {
                "easting": 836649,
                "latitude": 22.30209742,
                "description": "Cross Harbour Tunnel Kowloon Side",
                "region": "Kowloon",
                "northing": 818128,
                "key": "K107F",
                "url": "http://tdcctv.data.one.gov.hk/K107F.JPG",
                "longitude": 114.1805719
            },
            {
                "easting": 835229,
                "latitude": 22.3057997,
                "description": "Jordan Road near Ferry Street",
                "region": "Kowloon",
                "northing": 818538,
                "key": "K108F",
                "url": "http://tdcctv.data.one.gov.hk/K108F.JPG",
                "longitude": 114.1667908
            },
            {
                "easting": 839556,
                "latitude": 22.32535714,
                "description": "Kai Cheung Road near Wang Chiu Road",
                "region": "Kowloon",
                "northing": 820704,
                "key": "K613F",
                "url": "http://tdcctv.data.one.gov.hk/K613F.JPG",
                "longitude": 114.2087889
            },
            {
                "easting": 837362,
                "latitude": 22.3140446,
                "description": "Kai Tak Tunnel Kowloon City Side",
                "region": "Kowloon",
                "northing": 819451,
                "key": "K404F",
                "url": "http://tdcctv.data.one.gov.hk/K404F.JPG",
                "longitude": 114.1874923
            },
            {
                "easting": 832714,
                "latitude": 22.3371325,
                "description": "Kwai Chung Road near Mei Fo Sun Chuen",
                "region": "Kowloon",
                "northing": 822008,
                "key": "K325F",
                "url": "http://tdcctv.data.one.gov.hk/K325F.JPG",
                "longitude": 114.142375
            },
            {
                "easting": 839090,
                "latitude": 22.32573725,
                "description": "Kwun Tong Bypass near Kai Cheung Road",
                "region": "Kowloon",
                "northing": 820746,
                "key": "K814F",
                "url": "http://tdcctv.data.one.gov.hk/K814F.JPG",
                "longitude": 114.2042658
            },
            {
                "easting": 841692,
                "latitude": 22.30913278,
                "description": "Kwun Tong Bypass near Laguna City",
                "region": "Kowloon",
                "northing": 818908,
                "key": "K812F",
                "url": "http://tdcctv.data.one.gov.hk/K812F.JPG",
                "longitude": 114.2295157
            },
            {
                "easting": 840447,
                "latitude": 22.31230599,
                "description": "Kwun Tong Bypass near Lai Yip Street",
                "region": "Kowloon",
                "northing": 819259,
                "key": "K813F",
                "url": "http://tdcctv.data.one.gov.hk/K813F.JPG",
                "longitude": 114.2174335
            },
            {
                "easting": 839759,
                "latitude": 22.32951984,
                "description": "Kwun Tong Road near Kai Yip Estate",
                "region": "Kowloon",
                "northing": 821165,
                "key": "K621F",
                "url": "http://tdcctv.data.one.gov.hk/K621F.JPG",
                "longitude": 114.2107603
            },
            {
                "easting": 840179,
                "latitude": 22.31947692,
                "description": "Kwun Tong Road near Kowloon Bay MTR Station",
                "region": "Kowloon",
                "northing": 820053,
                "key": "K809F2",
                "url": "http://tdcctv.data.one.gov.hk/K809F2.JPG",
                "longitude": 114.2148344
            },
            {
                "easting": 840705,
                "latitude": 22.31464427,
                "description": "Kwun Tong Road near Ngua Tau Kok MTR Station",
                "region": "Kowloon",
                "northing": 819518,
                "key": "K810F",
                "url": "http://tdcctv.data.one.gov.hk/K810F.JPG",
                "longitude": 114.2199383
            },
            {
                "easting": 841668,
                "latitude": 22.31013525,
                "description": "Lei Yue Mun Road near Cha Kwo Ling Road",
                "region": "Kowloon",
                "northing": 819019,
                "key": "K602F",
                "url": "http://tdcctv.data.one.gov.hk/K602F.JPG",
                "longitude": 114.2292831
            },
            {
                "easting": 835019,
                "latitude": 22.3420935,
                "description": "Lung Cheung Road near Chak On Estate",
                "region": "Kowloon",
                "northing": 822557,
                "key": "K804F",
                "url": "http://tdcctv.data.one.gov.hk/K804F.JPG",
                "longitude": 114.1647497
            },
            {
                "easting": 837063,
                "latitude": 22.34290651,
                "description": "Lung Cheung Road/Chuk Yuen Road",
                "region": "Kowloon",
                "northing": 822647,
                "key": "K505F",
                "url": "http://tdcctv.data.one.gov.hk/K505F.JPG",
                "longitude": 114.1845919
            },
            {
                "easting": 839525,
                "latitude": 22.33399946,
                "description": "Lung Cheung Road/Clear Water Bay Road",
                "region": "Kowloon",
                "northing": 821661,
                "key": "K614F",
                "url": "http://tdcctv.data.one.gov.hk/K614F.JPG",
                "longitude": 114.20849
            },
            {
                "easting": 838544,
                "latitude": 22.34148739,
                "description": "Lung Cheung Road/Po Kong Village Road",
                "region": "Kowloon",
                "northing": 822490,
                "key": "K508F",
                "url": "http://tdcctv.data.one.gov.hk/K508F.JPG",
                "longitude": 114.1989686
            },
            {
                "easting": 837356,
                "latitude": 22.32217214,
                "description": "Ma Tau Wai Road near Farm Road",
                "region": "Kowloon",
                "northing": 820351,
                "key": "K405F",
                "url": "http://tdcctv.data.one.gov.hk/K405F.JPG",
                "longitude": 114.1874347
            },
            {
                "easting": 835419,
                "latitude": 22.32230774,
                "description": "Nathan Road near Lai Chi Kok Road",
                "region": "Kowloon",
                "northing": 820366,
                "key": "K205F",
                "url": "http://tdcctv.data.one.gov.hk/K205F.JPG",
                "longitude": 114.1686338
            },
            {
                "easting": 843921,
                "latitude": 22.32604763,
                "description": "Po Lam Road North near Po Hong Road",
                "region": "Kowloon",
                "northing": 820782,
                "key": "TK101F",
                "url": "http://tdcctv.data.one.gov.hk/TK101F.JPG",
                "longitude": 114.2511576
            },
            {
                "easting": 845001,
                "latitude": 22.31815879,
                "description": "Po Shun Road near Tseung Kwan O Swimming Pool",
                "region": "Kowloon",
                "northing": 819909,
                "key": "TK105F",
                "url": "http://tdcctv.data.one.gov.hk/TK105F.JPG",
                "longitude": 114.2616358
            },
            {
                "easting": 837681,
                "latitude": 22.32769862,
                "description": "Prince Edward Rd W Flyover nr Olympic Garden",
                "region": "Kowloon",
                "northing": 820963,
                "key": "K506F",
                "url": "http://tdcctv.data.one.gov.hk/K506F.JPG",
                "longitude": 114.1905897
            },
            {
                "easting": 838251,
                "latitude": 22.33257458,
                "description": "Prince Edward Road East near San Po Kong",
                "region": "Kowloon",
                "northing": 821503,
                "key": "K521F",
                "url": "http://tdcctv.data.one.gov.hk/K521F.JPG",
                "longitude": 114.1961231
            },
            {
                "easting": 836378,
                "latitude": 22.31084812,
                "description": "Princess Margaret Road near King's Park",
                "region": "Kowloon",
                "northing": 819097,
                "key": "K123F",
                "url": "http://tdcctv.data.one.gov.hk/K123F.JPG",
                "longitude": 114.1779419
            },
            {
                "easting": 836389,
                "latitude": 22.32128749,
                "description": "Princess Margaret Road/Argyle Street",
                "region": "Kowloon",
                "northing": 820253,
                "key": "K409F",
                "url": "http://tdcctv.data.one.gov.hk/K409F.JPG",
                "longitude": 114.1780488
            },
            {
                "easting": 836443,
                "latitude": 22.31726887,
                "description": "Princess Margaret Road/Pui Ching Road",
                "region": "Kowloon",
                "northing": 819808,
                "key": "K408F",
                "url": "http://tdcctv.data.one.gov.hk/K408F.JPG",
                "longitude": 114.1785729
            },
            {
                "easting": 836113,
                "latitude": 22.29557735,
                "description": "Salisbury Road near Chatham Road",
                "region": "Kowloon",
                "northing": 817406,
                "key": "K102F",
                "url": "http://tdcctv.data.one.gov.hk/K102F.JPG",
                "longitude": 114.1753702
            },
            {
                "easting": 835826,
                "latitude": 22.29458393,
                "description": "Salisbury Road near Nathan Road",
                "region": "Kowloon",
                "northing": 817296,
                "key": "K101F",
                "url": "http://tdcctv.data.one.gov.hk/K101F.JPG",
                "longitude": 114.1725851
            },
            {
                "easting": 841318,
                "latitude": 22.32400731,
                "description": "Sau Mau Ping Road near Hip Wo Street",
                "region": "Kowloon",
                "northing": 820555,
                "key": "K607F",
                "url": "http://tdcctv.data.one.gov.hk/K607F.JPG",
                "longitude": 114.2258911
            },
            {
                "easting": 842169,
                "latitude": 22.31209325,
                "description": "Tseung Kwan O Road near Tsui Ping South Estate",
                "region": "Kowloon",
                "northing": 819236,
                "key": "K811F",
                "url": "http://tdcctv.data.one.gov.hk/K811F.JPG",
                "longitude": 114.2341463
            },
            {
                "easting": 844594,
                "latitude": 22.31734805,
                "description": "Tseung Kwan O Tunnel - Tseung Kwan O Side",
                "region": "Kowloon",
                "northing": 819819,
                "key": "TK904F",
                "url": "http://tdcctv.data.one.gov.hk/TK904F.JPG",
                "longitude": 114.2576851
            },
            {
                "easting": 835240,
                "latitude": 22.31216628,
                "description": "Waterloo Road / Ferry Street",
                "region": "Kowloon",
                "northing": 819243,
                "key": "K111F",
                "url": "http://tdcctv.data.one.gov.hk/K111F.JPG",
                "longitude": 114.1668971
            },
            {
                "easting": 835730,
                "latitude": 22.31317793,
                "description": "Waterloo Road near Tung Fong Street",
                "region": "Kowloon",
                "northing": 819355,
                "key": "K112F",
                "url": "http://tdcctv.data.one.gov.hk/K112F.JPG",
                "longitude": 114.1716528
            },
            {
                "easting": 836493,
                "latitude": 22.34014333,
                "description": "Waterloo Road/Cornwall Street",
                "region": "Kowloon",
                "northing": 822341,
                "key": "K502F",
                "url": "http://tdcctv.data.one.gov.hk/K502F.JPG",
                "longitude": 114.1790585
            },
            {
                "easting": 834718,
                "latitude": 22.32504352,
                "description": "West Kowloon Corridor near Nam Cheong Estate",
                "region": "Kowloon",
                "northing": 820669,
                "key": "K816F",
                "url": "http://tdcctv.data.one.gov.hk/K816F.JPG",
                "longitude": 114.1618295
            },
            {
                "easting": 832752,
                "latitude": 22.33089245,
                "description": "West Kowloon Highway near Lai Wan Interchange",
                "region": "Kowloon",
                "northing": 821317,
                "key": "K914F",
                "url": "http://tdcctv.data.one.gov.hk/K914F.JPG",
                "longitude": 114.1427454
            },
            {
                "easting": 834682,
                "latitude": 22.31438739,
                "description": "West Kowloon Hwy - Yau Ma Tei Interchange N",
                "region": "Kowloon",
                "northing": 819489,
                "key": "K911F",
                "url": "http://tdcctv.data.one.gov.hk/K911F.JPG",
                "longitude": 114.1614812
            },
            {
                "easting": 830767,
                "latitude": 22.37020629,
                "description": "Castle Peak Road near Texaco Road North",
                "region": "Tsuen Wan",
                "northing": 825671,
                "key": "TW117F",
                "url": "http://tdcctv.data.one.gov.hk/TW117F.JPG",
                "longitude": 114.1234625
            },
            {
                "easting": 831994,
                "latitude": 22.3648908,
                "description": "Castle Peak Road near Wo Yi Hop Road",
                "region": "Tsuen Wan",
                "northing": 825082,
                "key": "TW109F",
                "url": "http://tdcctv.data.one.gov.hk/TW109F.JPG",
                "longitude": 114.1353776
            },
            {
                "easting": 830725,
                "latitude": 22.37653656,
                "description": "Cheung Pei Shan Road",
                "region": "Tsuen Wan",
                "northing": 826372,
                "key": "SM936F",
                "url": "http://tdcctv.data.one.gov.hk/SM936F.JPG",
                "longitude": 114.1230523
            },
            {
                "easting": 829537,
                "latitude": 22.34864601,
                "description": "Cheung Tsing Bridge",
                "region": "Tsuen Wan",
                "northing": 823284,
                "key": "TC101F",
                "url": "http://tdcctv.data.one.gov.hk/TC101F.JPG",
                "longitude": 114.1115299
            },
            {
                "easting": 827653,
                "latitude": 22.34472737,
                "description": "Cheung Tsing Highway near Kam Chuk Kok",
                "region": "Tsuen Wan",
                "northing": 822851,
                "key": "TC302F",
                "url": "http://tdcctv.data.one.gov.hk/TC302F.JPG",
                "longitude": 114.0932424
            },
            {
                "easting": 831769,
                "latitude": 22.339406,
                "description": "Kwai Chung Road near Container Terminal",
                "region": "Tsuen Wan",
                "northing": 822260,
                "key": "TW102F",
                "url": "http://tdcctv.data.one.gov.hk/TW102F.JPG",
                "longitude": 114.133201
            },
            {
                "easting": 831601,
                "latitude": 22.36080797,
                "description": "Kwai Chung Road near Kwai Hing MTR Station",
                "region": "Tsuen Wan",
                "northing": 824630,
                "key": "TW108F",
                "url": "http://tdcctv.data.one.gov.hk/TW108F.JPG",
                "longitude": 114.1315632
            },
            {
                "easting": 830732,
                "latitude": 22.35524257,
                "description": "Kwai Tsing Road near Tsing Yi Bridge",
                "region": "Tsuen Wan",
                "northing": 824014,
                "key": "TW105F",
                "url": "http://tdcctv.data.one.gov.hk/TW105F.JPG",
                "longitude": 114.1231284
            },
            {
                "easting": 830581,
                "latitude": 22.36698179,
                "description": "Texaco Road Flyover near Sha Tsui Road",
                "region": "Tsuen Wan",
                "northing": 825314,
                "key": "TW116F",
                "url": "http://tdcctv.data.one.gov.hk/TW116F.JPG",
                "longitude": 114.1216578
            },
            {
                "easting": 831659,
                "latitude": 22.33851168,
                "description": "Tsing Kwai Highway Near Container Port 4",
                "region": "Tsuen Wan",
                "northing": 822161,
                "key": "TC104F",
                "url": "http://tdcctv.data.one.gov.hk/TC104F.JPG",
                "longitude": 114.1321335
            },
            {
                "easting": 829371,
                "latitude": 22.34854601,
                "description": "Tsing Kwai Highway/Cheung Tsing Tunnel",
                "region": "Tsuen Wan",
                "northing": 823273,
                "key": "TW121F",
                "url": "http://tdcctv.data.one.gov.hk/TW121F.JPG",
                "longitude": 114.1099184
            },
            {
                "easting": 829229,
                "latitude": 22.3701465,
                "description": "Tsuen Wan Road near Tai Chung Road",
                "region": "Tsuen Wan",
                "northing": 825665,
                "key": "TW120F",
                "url": "http://tdcctv.data.one.gov.hk/TW120F.JPG",
                "longitude": 114.1085293
            },
            {
                "easting": 830302,
                "latitude": 22.36196889,
                "description": "Tsuen Wan Road near Tsuen Tsing Interchange",
                "region": "Tsuen Wan",
                "northing": 824759,
                "key": "TW103F",
                "url": "http://tdcctv.data.one.gov.hk/TW103F.JPG",
                "longitude": 114.118951
            },
            {
                "easting": 832089,
                "latitude": 22.37245862,
                "description": "Wo Yi Hop Road near Lei Shu Road",
                "region": "Tsuen Wan",
                "northing": 825920,
                "key": "TW112F",
                "url": "http://tdcctv.data.one.gov.hk/TW112F.JPG",
                "longitude": 114.1362978
            },
            {
                "easting": 818116,
                "latitude": 22.43594219,
                "description": "Castle Peak Road near Hung Shui Kiu",
                "region": "Tuen Mun & Tin Shui Wai",
                "northing": 832960,
                "key": "TI101F",
                "url": "http://tdcctv.data.one.gov.hk/TI101F.JPG",
                "longitude": 114.0005451
            },
            {
                "easting": 821778,
                "latitude": 22.44465535,
                "description": "Castle Peak Road near Pok Oi Interchange",
                "region": "Tuen Mun & Tin Shui Wai",
                "northing": 833921,
                "key": "YL111F",
                "url": "http://tdcctv.data.one.gov.hk/YL111F.JPG",
                "longitude": 114.0361091
            },
            {
                "easting": 821374,
                "latitude": 22.44436291,
                "description": "Castle Peak Road nearYuen Long",
                "region": "Tuen Mun & Tin Shui Wai",
                "northing": 833889,
                "key": "YL106F",
                "url": "http://tdcctv.data.one.gov.hk/YL106F.JPG",
                "longitude": 114.0321847
            },
            {
                "easting": 819768,
                "latitude": 22.44640711,
                "description": "Long Tin Road near Long Ping Road",
                "region": "Tuen Mun & Tin Shui Wai",
                "northing": 834117,
                "key": "YL101F",
                "url": "http://tdcctv.data.one.gov.hk/YL101F.JPG",
                "longitude": 114.0165806
            },
            {
                "easting": 814386,
                "latitude": 22.38336855,
                "description": "Lung Mun Road near Tuen Mun Recreation and Sports Centre",
                "region": "Tuen Mun & Tin Shui Wai",
                "northing": 827143,
                "key": "TM103F",
                "url": "http://tdcctv.data.one.gov.hk/TM103F.JPG",
                "longitude": 113.9643918
            },
            {
                "easting": 813947,
                "latitude": 22.37616562,
                "description": "Lung Mun Road near Wu Chui Road",
                "region": "Tuen Mun & Tin Shui Wai",
                "northing": 826346,
                "key": "RT115F",
                "url": "http://tdcctv.data.one.gov.hk/RT115F.JPG",
                "longitude": 113.9601401
            },
            {
                "easting": 815440,
                "latitude": 22.39405567,
                "description": "Pui To Road near Tuen Mun Park",
                "region": "Tuen Mun & Tin Shui Wai",
                "northing": 828325,
                "key": "TM118F",
                "url": "http://tdcctv.data.one.gov.hk/TM118F.JPG",
                "longitude": 113.974611
            },
            {
                "easting": 826472,
                "latitude": 22.36029874,
                "description": "Ting Kau Bridge",
                "region": "Tuen Mun & Tin Shui Wai",
                "northing": 824576,
                "key": "TC604F",
                "url": "http://tdcctv.data.one.gov.hk/TC604F.JPG",
                "longitude": 114.081767
            },
            {
                "easting": 828660,
                "latitude": 22.37407235,
                "description": "Tuen Mun Road - Chai Wan Kok",
                "region": "Tuen Mun & Tin Shui Wai",
                "northing": 826100,
                "key": "TR101F",
                "url": "http://tdcctv.data.one.gov.hk/TR101F.JPG",
                "longitude": 114.1030026
            },
            {
                "easting": 822340,
                "latitude": 22.36486675,
                "description": "Tuen Mun Road - near Tsing Lung Tau",
                "region": "Tuen Mun & Tin Shui Wai",
                "northing": 825085,
                "key": "TR111F",
                "url": "http://tdcctv.data.one.gov.hk/TR111F.JPG",
                "longitude": 114.0416459
            },
            {
                "easting": 815631,
                "latitude": 22.39807653,
                "description": "Tuen Mun Road near Tsing Yin Street",
                "region": "Tuen Mun & Tin Shui Wai",
                "northing": 828770,
                "key": "TR704F",
                "url": "http://tdcctv.data.one.gov.hk/TR704F.JPG",
                "longitude": 113.9764601
            },
            {
                "easting": 816012,
                "latitude": 22.38313566,
                "description": "Tuen Mun Road - Sam Shing Hui",
                "region": "Tuen Mun & Tin Shui Wai",
                "northing": 827115,
                "key": "TR119F",
                "url": "http://tdcctv.data.one.gov.hk/TR119F.JPG",
                "longitude": 113.9801811
            },
            {
                "easting": 824432,
                "latitude": 22.36947897,
                "description": "Tuen Mun Road - Sham Tseng Interchange",
                "region": "Tuen Mun & Tin Shui Wai",
                "northing": 825594,
                "key": "TR108F",
                "url": "http://tdcctv.data.one.gov.hk/TR108F.JPG",
                "longitude": 114.0619535
            },
            {
                "easting": 825207,
                "latitude": 22.36559198,
                "description": "Tuen Mun Road - Sham Tseng Section",
                "region": "Tuen Mun & Tin Shui Wai",
                "northing": 825163,
                "key": "TR107F",
                "url": "http://tdcctv.data.one.gov.hk/TR107F.JPG",
                "longitude": 114.0694813
            },
            {
                "easting": 818269,
                "latitude": 22.36741164,
                "description": "Tuen Mun Road - Siu Lam Section",
                "region": "Tuen Mun & Tin Shui Wai",
                "northing": 825371,
                "key": "TR116F",
                "url": "http://tdcctv.data.one.gov.hk/TR116F.JPG",
                "longitude": 114.002117
            },
            {
                "easting": 820023,
                "latitude": 22.35818188,
                "description": "Tuen Mun Road - Tai Lam Kok Section",
                "region": "Tuen Mun & Tin Shui Wai",
                "northing": 824347,
                "key": "TR114F",
                "url": "http://tdcctv.data.one.gov.hk/TR114F.JPG",
                "longitude": 114.0191574
            },
            {
                "easting": 826054,
                "latitude": 22.37129549,
                "description": "Tuen Mun Road - Ting Kau Section",
                "region": "Tuen Mun & Tin Shui Wai",
                "northing": 825794,
                "key": "TR105F",
                "url": "http://tdcctv.data.one.gov.hk/TR105F.JPG",
                "longitude": 114.0777009
            },
            {
                "easting": 827318,
                "latitude": 22.37033628,
                "description": "Tuen Mun Road - Yau Kom Tau Section",
                "region": "Tuen Mun & Tin Shui Wai",
                "northing": 825687,
                "key": "TR103F",
                "url": "http://tdcctv.data.one.gov.hk/TR103F.JPG",
                "longitude": 114.0899744
            },
            {
                "easting": 825644,
                "latitude": 22.37038995,
                "description": "Tuen Mun Road to Ting Kau Bridge",
                "region": "Tuen Mun & Tin Shui Wai",
                "northing": 825694,
                "key": "TC612F",
                "url": "http://tdcctv.data.one.gov.hk/TC612F.JPG",
                "longitude": 114.0737207
            },
            {
                "easting": 815482,
                "latitude": 22.38552239,
                "description": "Wong Chu Road near Tuen Mun Heung Sze Wui Road",
                "region": "Tuen Mun & Tin Shui Wai",
                "northing": 827380,
                "key": "RT116F",
                "url": "http://tdcctv.data.one.gov.hk/RT116F.JPG",
                "longitude": 113.9750312
            },
            {
                "easting": 814490,
                "latitude": 22.37340927,
                "description": "Wu Chui Road near Wu King Road",
                "region": "Tuen Mun & Tin Shui Wai",
                "northing": 826040,
                "key": "TM101F",
                "url": "http://tdcctv.data.one.gov.hk/TM101F.JPG",
                "longitude": 113.9654167
            },
            {
                "easting": 818174,
                "latitude": 22.42806827,
                "description": "Yuen Long Highway near Hung Tin Road",
                "region": "Tuen Mun & Tin Shui Wai",
                "northing": 832088,
                "key": "SW109F",
                "url": "http://tdcctv.data.one.gov.hk/SW109F.JPG",
                "longitude": 114.0011184
            },
            {
                "easting": 822099,
                "latitude": 22.44337572,
                "description": "Yuen Long Highway near Pok Oi Interchange",
                "region": "Tuen Mun & Tin Shui Wai",
                "northing": 833779,
                "key": "SW113F",
                "url": "http://tdcctv.data.one.gov.hk/SW113F.JPG",
                "longitude": 114.0392287
            },
            {
                "easting": 821323,
                "latitude": 22.43381492,
                "description": "Yuen Long Highway near Shap Pat Heung",
                "region": "Tuen Mun & Tin Shui Wai",
                "northing": 832721,
                "key": "SW112F",
                "url": "http://tdcctv.data.one.gov.hk/SW112F.JPG",
                "longitude": 114.0317002
            },
            {
                "easting": 819498,
                "latitude": 22.43812359,
                "description": "Yuen Long Highway near Tong Yan San Tsuen Interchange",
                "region": "Tuen Mun & Tin Shui Wai",
                "northing": 833200,
                "key": "SW111F",
                "url": "http://tdcctv.data.one.gov.hk/SW111F.JPG",
                "longitude": 114.0139673
            },
            {
                "easting": 824086,
                "latitude": 22.4863216,
                "description": "Castle Peak Road near Mai Po",
                "region": "Tai Po, North & Yuen Long",
                "northing": 838533,
                "key": "BC702F",
                "url": "http://tdcctv.data.one.gov.hk/BC702F.JPG",
                "longitude": 114.0584951
            },
            {
                "easting": 833539,
                "latitude": 22.46557484,
                "description": "Fanling Highway near Hong Lok Yuen",
                "region": "Tai Po, North & Yuen Long",
                "northing": 836231,
                "key": "FH711F",
                "url": "http://tdcctv.data.one.gov.hk/FH711F.JPG",
                "longitude": 114.1503591
            },
            {
                "easting": 833389,
                "latitude": 22.46264873,
                "description": "Fanling Highway near Hong Lok Yuen Road",
                "region": "Tai Po, North & Yuen Long",
                "northing": 835907,
                "key": "TP113F",
                "url": "http://tdcctv.data.one.gov.hk/TP113F.JPG",
                "longitude": 114.1489023
            },
            {
                "easting": 827843,
                "latitude": 22.5040348,
                "description": "Fanling Highway near Kwu Tung",
                "region": "Tai Po, North & Yuen Long",
                "northing": 840492,
                "key": "FH104F",
                "url": "http://tdcctv.data.one.gov.hk/FH104F.JPG",
                "longitude": 114.0949935
            },
            {
                "easting": 831230,
                "latitude": 22.49860284,
                "description": "Fanling Highway near Pak Wo Road",
                "region": "Tai Po, North & Yuen Long",
                "northing": 839889,
                "key": "FH107F",
                "url": "http://tdcctv.data.one.gov.hk/FH107F.JPG",
                "longitude": 114.127913
            },
            {
                "easting": 830835,
                "latitude": 22.50049801,
                "description": "Fanling Highway near Sheung Shui Roundabout",
                "region": "Tai Po, North & Yuen Long",
                "northing": 840099,
                "key": "FH106F",
                "url": "http://tdcctv.data.one.gov.hk/FH106F.JPG",
                "longitude": 114.1240735
            },
            {
                "easting": 833134,
                "latitude": 22.48802377,
                "description": "Jockey Club Road near Fanling Highway",
                "region": "Tai Po, North & Yuen Long",
                "northing": 838717,
                "key": "NH101F",
                "url": "http://tdcctv.data.one.gov.hk/NH101F.JPG",
                "longitude": 114.1464192
            },
            {
                "easting": 831879,
                "latitude": 22.50041071,
                "description": "Jockey Club Road near Ma Sik Road",
                "region": "Tai Po, North & Yuen Long",
                "northing": 840089,
                "key": "NH109F",
                "url": "http://tdcctv.data.one.gov.hk/NH109F.JPG",
                "longitude": 114.1342197
            },
            {
                "easting": 835760,
                "latitude": 22.44660398,
                "description": "Nam Wan Road near Kwong Fuk Road",
                "region": "Tai Po, North & Yuen Long",
                "northing": 834130,
                "key": "TP114F",
                "url": "http://tdcctv.data.one.gov.hk/TP114F.JPG",
                "longitude": 114.1719393
            },
            {
                "easting": 826468,
                "latitude": 22.50212205,
                "description": "San Sham Road Roundabout",
                "region": "Tai Po, North & Yuen Long",
                "northing": 840281,
                "key": "BC103F",
                "url": "http://tdcctv.data.one.gov.hk/BC103F.JPG",
                "longitude": 114.0816315
            },
            {
                "easting": 823791,
                "latitude": 22.4732254,
                "description": "San Tin Highway near Fairview Park",
                "region": "Tai Po, North & Yuen Long",
                "northing": 837083,
                "key": "BC101F",
                "url": "http://tdcctv.data.one.gov.hk/BC101F.JPG",
                "longitude": 114.0556398
            },
            {
                "easting": 824754,
                "latitude": 22.4927649,
                "description": "San Tin Highway near Mai Po",
                "region": "Tai Po, North & Yuen Long",
                "northing": 839246,
                "key": "BC102F",
                "url": "http://tdcctv.data.one.gov.hk/BC102F.JPG",
                "longitude": 114.0649812
            },
            {
                "easting": 831109,
                "latitude": 22.50305446,
                "description": "San Wan Road near Lung Sum Avenue",
                "region": "Tai Po, North & Yuen Long",
                "northing": 840382,
                "key": "NH113F",
                "url": "http://tdcctv.data.one.gov.hk/NH113F.JPG",
                "longitude": 114.1267355
            },
            {
                "easting": 833195,
                "latitude": 22.50116311,
                "description": "Sha Tau Kok Road near Ma Sik Road",
                "region": "Tai Po, North & Yuen Long",
                "northing": 840172,
                "key": "NH115F",
                "url": "http://tdcctv.data.one.gov.hk/NH115F.JPG",
                "longitude": 114.1470091
            },
            {
                "easting": 835778,
                "latitude": 22.45119145,
                "description": "Tai Po Tai Wo Road near Nam Wan Road",
                "region": "Tai Po, North & Yuen Long",
                "northing": 834638,
                "key": "TP105F",
                "url": "http://tdcctv.data.one.gov.hk/TP105F.JPG",
                "longitude": 114.172114
            },
            {
                "easting": 834388,
                "latitude": 22.45219287,
                "description": "Tai Po Tai Wo Road near Tai Po Road- Tai Wo",
                "region": "Tai Po, North & Yuen Long",
                "northing": 834749,
                "key": "TP112F",
                "url": "http://tdcctv.data.one.gov.hk/TP112F.JPG",
                "longitude": 114.1586098
            },
            {
                "easting": 836313,
                "latitude": 22.45688973,
                "description": "Yuen Shin Road near Ting Kok Road",
                "region": "Tai Po, North & Yuen Long",
                "northing": 835269,
                "key": "TP102F",
                "url": "http://tdcctv.data.one.gov.hk/TP102F.JPG",
                "longitude": 114.1773116
            },
            {
                "easting": 838396,
                "latitude": 22.38982807,
                "description": "Fo Tan Road",
                "region": "Shatin & Ma On Shan",
                "northing": 827843,
                "key": "ST115F",
                "url": "http://tdcctv.data.one.gov.hk/ST115F.JPG",
                "longitude": 114.1975391
            },
            {
                "easting": 837409,
                "latitude": 22.37000701,
                "description": "Lion Rock Tunnel Road near Sun Tin Wai Estate",
                "region": "Shatin & Ma On Shan",
                "northing": 825648,
                "key": "ST725F",
                "url": "http://tdcctv.data.one.gov.hk/ST725F.JPG",
                "longitude": 114.1879529
            },
            {
                "easting": 841525,
                "latitude": 22.41374312,
                "description": "Ma On Shan Bypass near Heng On Estate",
                "region": "Shatin & Ma On Shan",
                "northing": 830492,
                "key": "ST731F",
                "url": "http://tdcctv.data.one.gov.hk/ST731F.JPG",
                "longitude": 114.227933
            },
            {
                "easting": 842077,
                "latitude": 22.41757026,
                "description": "Ma On Shan Bypass near Yiu On Estate",
                "region": "Shatin & Ma On Shan",
                "northing": 830916,
                "key": "ST732F",
                "url": "http://tdcctv.data.one.gov.hk/ST732F.JPG",
                "longitude": 114.2332959
            },
            {
                "easting": 836511,
                "latitude": 22.37150644,
                "description": "Mei Tin Rd nr Che Kung Miu Rd Rbt",
                "region": "Shatin & Ma On Shan",
                "northing": 825814,
                "key": "ST112F",
                "url": "http://tdcctv.data.one.gov.hk/ST112F.JPG",
                "longitude": 114.1792338
            },
            {
                "easting": 841411,
                "latitude": 22.42173545,
                "description": "Sai Sha Road near Ma On Shan Sports Ground",
                "region": "Shatin & Ma On Shan",
                "northing": 831377,
                "key": "ST117F",
                "url": "http://tdcctv.data.one.gov.hk/ST117F.JPG",
                "longitude": 114.2268287
            },
            {
                "easting": 842796,
                "latitude": 22.42718513,
                "description": "Sai Sha Road/Kam Ying Road",
                "region": "Shatin & Ma On Shan",
                "northing": 831981,
                "key": "ST119F",
                "url": "http://tdcctv.data.one.gov.hk/ST119F.JPG",
                "longitude": 114.2402838
            },
            {
                "easting": 838694,
                "latitude": 22.37760035,
                "description": "Sha Lek Highway near Prince Wales Hospital",
                "region": "Shatin & Ma On Shan",
                "northing": 826489,
                "key": "ST715F",
                "url": "http://tdcctv.data.one.gov.hk/ST715F.JPG",
                "longitude": 114.2004308
            },
            {
                "easting": 838638,
                "latitude": 22.3779165,
                "description": "Sha Tin Wai Road/Sha Lek Highway Slip Road",
                "region": "Shatin & Ma On Shan",
                "northing": 826524,
                "key": "ST106F",
                "url": "http://tdcctv.data.one.gov.hk/ST106F.JPG",
                "longitude": 114.1998871
            },
            {
                "easting": 838800,
                "latitude": 22.38380417,
                "description": "Shatin Road near Yuen Chau Kok Park",
                "region": "Shatin & Ma On Shan",
                "northing": 827176,
                "key": "ST721F",
                "url": "http://tdcctv.data.one.gov.hk/ST721F.JPG",
                "longitude": 114.2014612
            },
            {
                "easting": 836842,
                "latitude": 22.37778258,
                "description": "Shing Mun Tunnel Road",
                "region": "Shatin & Ma On Shan",
                "northing": 826509,
                "key": "SM933F",
                "url": "http://tdcctv.data.one.gov.hk/SM933F.JPG",
                "longitude": 114.1824479
            },
            {
                "easting": 835988,
                "latitude": 22.38244241,
                "description": "Shing Mun Tunnel Shatin Side",
                "region": "Shatin & Ma On Shan",
                "northing": 827025,
                "key": "SM934F",
                "url": "http://tdcctv.data.one.gov.hk/SM934F.JPG",
                "longitude": 114.1741555
            },
            {
                "easting": 838987,
                "latitude": 22.38920413,
                "description": "Tai Chung Kiu Road near Ravana Garden",
                "region": "Shatin & Ma On Shan",
                "northing": 827774,
                "key": "ST109F",
                "url": "http://tdcctv.data.one.gov.hk/ST109F.JPG",
                "longitude": 114.2032781
            },
            {
                "easting": 837603,
                "latitude": 22.3843925,
                "description": "Tai Po Road - Shatin Section",
                "region": "Shatin & Ma On Shan",
                "northing": 827241,
                "key": "ST114F",
                "url": "http://tdcctv.data.one.gov.hk/ST114F.JPG",
                "longitude": 114.1898379
            },
            {
                "easting": 838614,
                "latitude": 22.39488488,
                "description": "Tai Po Road near MTR Racecourse Station",
                "region": "Shatin & Ma On Shan",
                "northing": 828403,
                "key": "ST703F",
                "url": "http://tdcctv.data.one.gov.hk/ST703F.JPG",
                "longitude": 114.1996569
            },
            {
                "easting": 839918,
                "latitude": 22.39842255,
                "description": "Tate's Cairn Highway near Shatin Hospital",
                "region": "Shatin & Ma On Shan",
                "northing": 828795,
                "key": "ST712F1",
                "url": "http://tdcctv.data.one.gov.hk/ST712F1.JPG",
                "longitude": 114.2123212
            },
            {
                "easting": 839799,
                "latitude": 22.38789322,
                "description": "Tate's Cairn Highway near Tai Shek Kwu",
                "region": "Shatin & Ma On Shan",
                "northing": 827629,
                "key": "ST714F",
                "url": "http://tdcctv.data.one.gov.hk/ST714F.JPG",
                "longitude": 114.2111629
            },
            {
                "easting": 838321,
                "latitude": 22.43822255,
                "description": "Tolo Highway near HK Science Park",
                "region": "Shatin & Ma On Shan",
                "northing": 833202,
                "key": "TH110F",
                "url": "http://tdcctv.data.one.gov.hk/TH110F.JPG",
                "longitude": 114.1968177
            },
            {
                "easting": 836347,
                "latitude": 22.44478893,
                "description": "Tolo Highway near Island House Interchange",
                "region": "Shatin & Ma On Shan",
                "northing": 833929,
                "key": "TH114F",
                "url": "http://tdcctv.data.one.gov.hk/TH114F.JPG",
                "longitude": 114.1776419
            },
            {
                "easting": 839945,
                "latitude": 22.41141738,
                "description": "Tolo Highway near Ma Liu Shui Interchange",
                "region": "Shatin & Ma On Shan",
                "northing": 830234,
                "key": "TH101F",
                "url": "http://tdcctv.data.one.gov.hk/TH101F.JPG",
                "longitude": 114.2125867
            },
            {
                "easting": 834456,
                "latitude": 22.44067912,
                "description": "Tolo Highway near Ma Wo",
                "region": "Tai Po, North & Yuen Long",
                "northing": 833474,
                "key": "TH703F",
                "url": "http://tdcctv.data.one.gov.hk/TH703F.JPG",
                "longitude": 114.1592719
            },
            {
                "easting": 833463,
                "latitude": 22.45634561,
                "description": "Tolo Highway near Mui Shue Hang",
                "region": "Tai Po, North & Yuen Long",
                "northing": 835209,
                "key": "TH701F",
                "url": "http://tdcctv.data.one.gov.hk/TH701F.JPG",
                "longitude": 114.1496225
            },
            {
                "easting": 839792,
                "latitude": 22.40714628,
                "description": "Tolo Highway near Sha Tin Sewage Treatment Works",
                "region": "Shatin & Ma On Shan",
                "northing": 829761,
                "key": "ST701F",
                "url": "http://tdcctv.data.one.gov.hk/ST701F.JPG",
                "longitude": 114.2110997
            },
            {
                "easting": 823943,
                "latitude": 22.34523759,
                "description": "Kap Shui Mun Bridge",
                "region": "Lantau",
                "northing": 822910,
                "key": "TC551F",
                "url": "http://tdcctv.data.one.gov.hk/TC551F.JPG",
                "longitude": 114.0572263
            },
            {
                "easting": 822059,
                "latitude": 22.33733939,
                "description": "Lantau Link near Toll Plaza",
                "region": "Lantau",
                "northing": 822037,
                "key": "TC573F",
                "url": "http://tdcctv.data.one.gov.hk/TC573F.JPG",
                "longitude": 114.0389447
            },
            {
                "easting": 814547,
                "latitude": 22.2980955,
                "description": "North Lantau Highway near Pak Mong",
                "region": "Lantau",
                "northing": 817700,
                "key": "NL126F",
                "url": "http://tdcctv.data.one.gov.hk/NL126F.JPG",
                "longitude": 113.9660833
            },
            {
                "easting": 817064,
                "latitude": 22.31008185,
                "description": "North Lantau Highway near Siu Ho Wan",
                "region": "Lantau",
                "northing": 819024,
                "key": "NL124F",
                "url": "http://tdcctv.data.one.gov.hk/NL124F.JPG",
                "longitude": 113.9904935
            },
            {
                "easting": 820157,
                "latitude": 22.3249869,
                "description": "North Lantau Highway near Sunny Bay",
                "region": "Lantau",
                "northing": 820671,
                "key": "NL121F",
                "url": "http://tdcctv.data.one.gov.hk/NL121F.JPG",
                "longitude": 114.0204954
            },
            {
                "easting": 812644,
                "latitude": 22.2889767,
                "description": "North Lantau Highway near Tung Chung",
                "region": "Lantau",
                "northing": 816693,
                "key": "NL128F",
                "url": "http://tdcctv.data.one.gov.hk/NL128F.JPG",
                "longitude": 113.9476306
            },
            {
                "easting": 821732,
                "latitude": 22.3253802,
                "description": "Penny's Bay Highway",
                "region": "Lantau",
                "northing": 820713,
                "key": "PB106F",
                "url": "http://tdcctv.data.one.gov.hk/PB106F.JPG",
                "longitude": 114.0357825
            },
            {
                "easting": 825678,
                "latitude": 22.35110094,
                "description": "Tsing Ma Bridge",
                "region": "Lantau",
                "northing": 823558,
                "key": "TC560F",
                "url": "http://tdcctv.data.one.gov.hk/TC560F.JPG",
                "longitude": 114.074065
            },
            {
                "easting": 832332,
                "latitude": 22.49162524,
                "description": "Fanling Highway near MTR Fanling Station",
                "region": "Tai Po, North & Yuen Long",
                "northing": 839116,
                "key": "FH706F",
                "url": "http://tdcctv.data.one.gov.hk/FH706F.JPG",
                "longitude": 114.1386246
            },
            {
                "easting": 836822,
                "latitude": 22.36487795,
                "description": "Lion Rock Tunnel Road near Hung Mui Kuk Road",
                "region": "Shatin & Ma On Shan",
                "northing": 825080,
                "key": "ST922F",
                "url": "http://tdcctv.data.one.gov.hk/ST922F.JPG",
                "longitude": 114.1822532
            },
            {
                "easting": 815904,
                "latitude": 22.44774713,
                "description": "Kong Sham Western Highway near Ha Tsuen",
                "region": "Tuen Mun & Tin Shui Wai",
                "northing": 834270,
                "key": "SW103F",
                "url": "http://tdcctv.data.one.gov.hk/SW103F.JPG",
                "longitude": 113.9790409
            },
            {
                "easting": 817765,
                "latitude": 22.42438851,
                "description": "Yuen Long Highway near Tan Kwai Tsuen",
                "region": "Tuen Mun & Tin Shui Wai",
                "northing": 831681,
                "key": "SW108F",
                "url": "http://tdcctv.data.one.gov.hk/SW108F.JPG",
                "longitude": 113.9971503
            },
            {
                "easting": 824294,
                "latitude": 22.41030489,
                "description": "Tai Lam Tunnel - Yuen Long Side",
                "region": "Tai Po, North & Yuen Long",
                "northing": 830115,
                "key": "TL102F",
                "url": "http://tdcctv.data.one.gov.hk/TL102F.JPG",
                "longitude": 114.0605797
            },
            {
                "easting": 824945,
                "latitude": 22.37542451,
                "description": "Tai Lam Tunnel - Ting Kau Side",
                "region": "Tuen Mun & Tin Shui Wai",
                "northing": 826252,
                "key": "TL103F",
                "url": "http://tdcctv.data.one.gov.hk/TL103F.JPG",
                "longitude": 114.0669298
            },
            {
                "easting": 829034,
                "latitude": 22.33475496,
                "description": "Nam Wan Tunnel- Stonecutters Bridge side",
                "region": "Tsuen Wan",
                "northing": 821746,
                "key": "TS102F",
                "url": "http://tdcctv.data.one.gov.hk/TS102F.JPG",
                "longitude": 114.1066537
            },
            {
                "easting": 832853,
                "latitude": 22.34238857,
                "description": "Tsing Sha Highway near Lai Chi Kok",
                "region": "Tsuen Wan",
                "northing": 822590,
                "key": "TS104F",
                "url": "http://tdcctv.data.one.gov.hk/TS104F.JPG",
                "longitude": 114.1437231
            },
            {
                "easting": 835713,
                "latitude": 22.36758712,
                "description": "Sha Tin Heights Tunnel - Sha Tin Side",
                "region": "Shatin & Ma On Shan",
                "northing": 825380,
                "key": "TS105F",
                "url": "http://tdcctv.data.one.gov.hk/TS105F.JPG",
                "longitude": 114.1714857
            },
            {
                "easting": 829853,
                "latitude": 22.37667801,
                "description": "Cheung Pei Shan Road near Mei Wan Street",
                "region": "Tsuen Wan",
                "northing": 826388,
                "key": "TW701F",
                "url": "http://tdcctv.data.one.gov.hk/TW701F.JPG",
                "longitude": 114.1145851
            },
            {
                "easting": 832714,
                "latitude": 22.29032691,
                "description": "Western Harbour Crossing Hong Kong Side",
                "region": "Hong Kong Island",
                "northing": 816825,
                "key": "H702F",
                "url": "http://tdcctv.data.one.gov.hk/H702F.JPG",
                "longitude": 114.1423865
            },
            {
                "easting": 832744,
                "latitude": 22.28871049,
                "description": "Connaught Road West",
                "region": "Hong Kong Island",
                "northing": 816646,
                "key": "H703F",
                "url": "http://tdcctv.data.one.gov.hk/H703F.JPG",
                "longitude": 114.142678
            },
            {
                "easting": 834653,
                "latitude": 22.30759635,
                "description": "Western Harbour Crossing Kowloon Side",
                "region": "Kowloon",
                "northing": 818737,
                "key": "K901F",
                "url": "http://tdcctv.data.one.gov.hk/K901F.JPG",
                "longitude": 114.1612005
            },
            {
                "easting": 839329,
                "latitude": 22.33368375,
                "description": "Tate's Cairn Tunnel Kowloon Side",
                "region": "Kowloon",
                "northing": 821626,
                "key": "K931F",
                "url": "http://tdcctv.data.one.gov.hk/K931F.JPG",
                "longitude": 114.2065874
            },
            {
                "easting": 842151,
                "latitude": 22.30140107,
                "description": "Eastern Harbour Crossing Kowloon Side",
                "region": "Kowloon",
                "northing": 818052,
                "key": "K952F",
                "url": "http://tdcctv.data.one.gov.hk/K952F.JPG",
                "longitude": 114.2339672
            },
            {
                "easting": 839615,
                "latitude": 22.38206891,
                "description": "Tate's Cairn Tunnel Shatin Side",
                "region": "Shatin & Ma On Shan",
                "northing": 826984,
                "key": "ST942F",
                "url": "http://tdcctv.data.one.gov.hk/ST942F.JPG",
                "longitude": 114.2093748
            },
            {
                "easting": 835484,
                "latitude": 22.29627254,
                "description": "Canton Road near Salisbury Road",
                "region": "Kowloon",
                "northing": 817483,
                "key": "K121F",
                "url": "http://tdcctv.data.one.gov.hk/K121F.JPG",
                "longitude": 114.1692661
            },
            {
                "easting": 823839,
                "latitude": 22.43886499,
                "description": "Tsing Long Highway near Ko Po San Tsuen",
                "region": "Tai Po, North & Yuen Long",
                "northing": 833278,
                "key": "TL101F",
                "url": "http://tdcctv.data.one.gov.hk/TL101F.JPG",
                "longitude": 114.056136
            },
            {
                "easting": 815928,
                "latitude": 22.41137289,
                "description": "Tuen Mun Road near MTR Siu Hong Station",
                "region": "Tuen Mun & Tin Shui Wai",
                "northing": 830242,
                "key": "TR706F",
                "url": "http://tdcctv.data.one.gov.hk/TR706F.JPG",
                "longitude": 113.9793256
            },
            {
                "easting": 827717,
                "latitude": 22.34330086,
                "description": "Nam Wan Tunnel - Sai Tso Wan Side",
                "region": "Tsuen Wan",
                "northing": 822693,
                "key": "TS101F",
                "url": "http://tdcctv.data.one.gov.hk/TS101F.JPG",
                "longitude": 114.0938645
            },
            {
                "easting": 815053,
                "latitude": 22.29965345,
                "description": "Shun Long Road near North Lantau Highway",
                "region": "Lantau",
                "northing": 817871,
                "key": "NL206F",
                "url": "http://tdcctv.data.one.gov.hk/NL206F.JPG",
                "longitude": 113.9709987
            }
        ]
    }
}